AccurateAdder/SIMULATION/run_s/Adder.vcd
$date
	Wed May 24 17:23:22 2017
$end
$version
	ModelSim Version 10.0c
$end
$timescale
	1ns
$end
$scope module test $end
$var wire 1 ! S [8] $end
$var wire 1 " S [7] $end
$var wire 1 # S [6] $end
$var wire 1 $ S [5] $end
$var wire 1 % S [4] $end
$var wire 1 & S [3] $end
$var wire 1 ' S [2] $end
$var wire 1 ( S [1] $end
$var wire 1 ) S [0] $end
$var reg 8 * X [7:0] $end
$var reg 8 + Y [7:0] $end
$var reg 1 , C $end
$var reg 1 - clock $end
$scope module ADD0 $end
$var wire 1 ! Sum [8] $end
$var wire 1 " Sum [7] $end
$var wire 1 # Sum [6] $end
$var wire 1 $ Sum [5] $end
$var wire 1 % Sum [4] $end
$var wire 1 & Sum [3] $end
$var wire 1 ' Sum [2] $end
$var wire 1 ( Sum [1] $end
$var wire 1 ) Sum [0] $end
$var wire 1 . clock $end
$var wire 1 / X [7] $end
$var wire 1 0 X [6] $end
$var wire 1 1 X [5] $end
$var wire 1 2 X [4] $end
$var wire 1 3 X [3] $end
$var wire 1 4 X [2] $end
$var wire 1 5 X [1] $end
$var wire 1 6 X [0] $end
$var wire 1 7 Y [7] $end
$var wire 1 8 Y [6] $end
$var wire 1 9 Y [5] $end
$var wire 1 : Y [4] $end
$var wire 1 ; Y [3] $end
$var wire 1 < Y [2] $end
$var wire 1 = Y [1] $end
$var wire 1 > Y [0] $end
$var wire 1 ? Cin $end
$var wire 1 @ clock__L2_N0 $end
$var wire 1 A clock__L1_N0 $end
$var wire 1 B n19 $end
$var wire 1 C n20 $end
$var wire 1 D S [8] $end
$var wire 1 E S [7] $end
$var wire 1 F S [6] $end
$var wire 1 G S [5] $end
$var wire 1 H S [4] $end
$var wire 1 I S [3] $end
$var wire 1 J S [2] $end
$var wire 1 K S [1] $end
$var wire 1 L S [0] $end
$var wire 1 M C [6] $end
$var wire 1 N C [5] $end
$var wire 1 O C [4] $end
$var wire 1 P C [3] $end
$var wire 1 Q C [2] $end
$var wire 1 R C [1] $end
$var wire 1 S C [0] $end
$scope module clock__L2_I0 $end
$var wire 1 A A $end
$var wire 1 @ ZN $end
$upscope $end
$scope module clock__L1_I0 $end
$var wire 1 . A $end
$var wire 1 A ZN $end
$upscope $end
$scope module a0 $end
$var wire 1 6 A $end
$var wire 1 > B $end
$var wire 1 ? Cin $end
$var wire 1 L Sum $end
$var wire 1 S Cout $end
$var wire 1 T n2 $end
$var wire 1 U n3 $end
$scope module U2 $end
$var wire 1 ? A $end
$var wire 1 T B $end
$var wire 1 L Z $end
$upscope $end
$scope module U3 $end
$var wire 1 > A1 $end
$var wire 1 6 A2 $end
$var wire 1 T B1 $end
$var wire 1 ? B2 $end
$var wire 1 U ZN $end
$var wire 1 V i_516 $end
$var wire 1 W i_517 $end
$var wire 1 X i_518 $end
$upscope $end
$scope module U4 $end
$var wire 1 6 A $end
$var wire 1 > B $end
$var wire 1 T Z $end
$upscope $end
$scope module U1 $end
$var wire 1 U A $end
$var wire 1 S ZN $end
$upscope $end
$upscope $end
$scope module a1 $end
$var wire 1 5 A $end
$var wire 1 = B $end
$var wire 1 S Cin $end
$var wire 1 K Sum $end
$var wire 1 R Cout $end
$var wire 1 Y n1 $end
$var wire 1 Z n3 $end
$scope module U2 $end
$var wire 1 S A $end
$var wire 1 Z B $end
$var wire 1 K Z $end
$upscope $end
$scope module U3 $end
$var wire 1 = A1 $end
$var wire 1 5 A2 $end
$var wire 1 Z B1 $end
$var wire 1 S B2 $end
$var wire 1 Y ZN $end
$var wire 1 [ i_516 $end
$var wire 1 \ i_517 $end
$var wire 1 ] i_518 $end
$upscope $end
$scope module U4 $end
$var wire 1 5 A $end
$var wire 1 = B $end
$var wire 1 Z Z $end
$upscope $end
$scope module U1 $end
$var wire 1 Y A $end
$var wire 1 R ZN $end
$upscope $end
$upscope $end
$scope module a2 $end
$var wire 1 4 A $end
$var wire 1 < B $end
$var wire 1 R Cin $end
$var wire 1 J Sum $end
$var wire 1 Q Cout $end
$var wire 1 ^ n1 $end
$var wire 1 _ n3 $end
$scope module U2 $end
$var wire 1 R A $end
$var wire 1 _ B $end
$var wire 1 J Z $end
$upscope $end
$scope module U3 $end
$var wire 1 < A1 $end
$var wire 1 4 A2 $end
$var wire 1 _ B1 $end
$var wire 1 R B2 $end
$var wire 1 ^ ZN $end
$var wire 1 ` i_516 $end
$var wire 1 a i_517 $end
$var wire 1 b i_518 $end
$upscope $end
$scope module U4 $end
$var wire 1 4 A $end
$var wire 1 < B $end
$var wire 1 _ Z $end
$upscope $end
$scope module U1 $end
$var wire 1 ^ A $end
$var wire 1 Q ZN $end
$upscope $end
$upscope $end
$scope module a3 $end
$var wire 1 3 A $end
$var wire 1 ; B $end
$var wire 1 Q Cin $end
$var wire 1 B Sum $end
$var wire 1 C Cout $end
$var wire 1 c n1 $end
$var wire 1 d n3 $end
$scope module U2 $end
$var wire 1 Q A $end
$var wire 1 d B $end
$var wire 1 B Z $end
$upscope $end
$scope module U3 $end
$var wire 1 ; A1 $end
$var wire 1 3 A2 $end
$var wire 1 d B1 $end
$var wire 1 Q B2 $end
$var wire 1 c ZN $end
$var wire 1 e i_516 $end
$var wire 1 f i_517 $end
$var wire 1 g i_518 $end
$upscope $end
$scope module U4 $end
$var wire 1 3 A $end
$var wire 1 ; B $end
$var wire 1 d Z $end
$upscope $end
$scope module U1 $end
$var wire 1 c A $end
$var wire 1 C ZN $end
$upscope $end
$upscope $end
$scope module a4 $end
$var wire 1 2 A $end
$var wire 1 : B $end
$var wire 1 h Cin $end
$var wire 1 H Sum $end
$var wire 1 O Cout $end
$var wire 1 i n1 $end
$var wire 1 j n3 $end
$scope module U2 $end
$var wire 1 h A $end
$var wire 1 j B $end
$var wire 1 H Z $end
$upscope $end
$scope module U3 $end
$var wire 1 : A1 $end
$var wire 1 2 A2 $end
$var wire 1 j B1 $end
$var wire 1 h B2 $end
$var wire 1 i ZN $end
$var wire 1 k i_516 $end
$var wire 1 l i_517 $end
$var wire 1 m i_518 $end
$upscope $end
$scope module U4 $end
$var wire 1 2 A $end
$var wire 1 : B $end
$var wire 1 j Z $end
$upscope $end
$scope module U1 $end
$var wire 1 i A $end
$var wire 1 O ZN $end
$upscope $end
$upscope $end
$scope module a5 $end
$var wire 1 1 A $end
$var wire 1 9 B $end
$var wire 1 O Cin $end
$var wire 1 G Sum $end
$var wire 1 N Cout $end
$var wire 1 n n1 $end
$var wire 1 o n3 $end
$scope module U2 $end
$var wire 1 O A $end
$var wire 1 o B $end
$var wire 1 G Z $end
$upscope $end
$scope module U3 $end
$var wire 1 9 A1 $end
$var wire 1 1 A2 $end
$var wire 1 o B1 $end
$var wire 1 O B2 $end
$var wire 1 n ZN $end
$var wire 1 p i_516 $end
$var wire 1 q i_517 $end
$var wire 1 r i_518 $end
$upscope $end
$scope module U4 $end
$var wire 1 1 A $end
$var wire 1 9 B $end
$var wire 1 o Z $end
$upscope $end
$scope module U1 $end
$var wire 1 n A $end
$var wire 1 N ZN $end
$upscope $end
$upscope $end
$scope module a6 $end
$var wire 1 0 A $end
$var wire 1 8 B $end
$var wire 1 N Cin $end
$var wire 1 F Sum $end
$var wire 1 M Cout $end
$var wire 1 s n1 $end
$var wire 1 t n3 $end
$scope module U2 $end
$var wire 1 N A $end
$var wire 1 t B $end
$var wire 1 F Z $end
$upscope $end
$scope module U3 $end
$var wire 1 8 A1 $end
$var wire 1 0 A2 $end
$var wire 1 t B1 $end
$var wire 1 N B2 $end
$var wire 1 s ZN $end
$var wire 1 u i_516 $end
$var wire 1 v i_517 $end
$var wire 1 w i_518 $end
$upscope $end
$scope module U4 $end
$var wire 1 0 A $end
$var wire 1 8 B $end
$var wire 1 t Z $end
$upscope $end
$scope module U1 $end
$var wire 1 s A $end
$var wire 1 M ZN $end
$upscope $end
$upscope $end
$scope module a7 $end
$var wire 1 / A $end
$var wire 1 7 B $end
$var wire 1 M Cin $end
$var wire 1 E Sum $end
$var wire 1 D Cout $end
$var wire 1 x n1 $end
$var wire 1 y n3 $end
$scope module U2 $end
$var wire 1 M A $end
$var wire 1 y B $end
$var wire 1 E Z $end
$upscope $end
$scope module U3 $end
$var wire 1 7 A1 $end
$var wire 1 / A2 $end
$var wire 1 y B1 $end
$var wire 1 M B2 $end
$var wire 1 x ZN $end
$var wire 1 z i_516 $end
$var wire 1 { i_517 $end
$var wire 1 | i_518 $end
$upscope $end
$scope module U4 $end
$var wire 1 / A $end
$var wire 1 7 B $end
$var wire 1 y Z $end
$upscope $end
$scope module U1 $end
$var wire 1 x A $end
$var wire 1 D ZN $end
$upscope $end
$upscope $end
$scope module Sum_reg_0_ $end
$var wire 1 @ CK $end
$var wire 1 L D $end
$var wire 1 ) Q $end
$var wire 1 } QN $end
$var reg 1 ~ NOTIFIER $end
$var wire 1 !! IQ $end
$var wire 1 "! nextstate $end
$var wire 1 #! IQN $end
$upscope $end
$scope module Sum_reg_1_ $end
$var wire 1 @ CK $end
$var wire 1 K D $end
$var wire 1 ( Q $end
$var wire 1 $! QN $end
$var reg 1 %! NOTIFIER $end
$var wire 1 &! IQ $end
$var wire 1 '! nextstate $end
$var wire 1 (! IQN $end
$upscope $end
$scope module Sum_reg_2_ $end
$var wire 1 @ CK $end
$var wire 1 J D $end
$var wire 1 ' Q $end
$var wire 1 )! QN $end
$var reg 1 *! NOTIFIER $end
$var wire 1 +! IQ $end
$var wire 1 ,! nextstate $end
$var wire 1 -! IQN $end
$upscope $end
$scope module Sum_reg_3_ $end
$var wire 1 @ CK $end
$var wire 1 I D $end
$var wire 1 & Q $end
$var wire 1 .! QN $end
$var reg 1 /! NOTIFIER $end
$var wire 1 0! IQ $end
$var wire 1 1! nextstate $end
$var wire 1 2! IQN $end
$upscope $end
$scope module Sum_reg_4_ $end
$var wire 1 @ CK $end
$var wire 1 H D $end
$var wire 1 % Q $end
$var wire 1 3! QN $end
$var reg 1 4! NOTIFIER $end
$var wire 1 5! IQ $end
$var wire 1 6! nextstate $end
$var wire 1 7! IQN $end
$upscope $end
$scope module Sum_reg_5_ $end
$var wire 1 @ CK $end
$var wire 1 G D $end
$var wire 1 $ Q $end
$var wire 1 8! QN $end
$var reg 1 9! NOTIFIER $end
$var wire 1 :! IQ $end
$var wire 1 ;! nextstate $end
$var wire 1 <! IQN $end
$upscope $end
$scope module Sum_reg_6_ $end
$var wire 1 @ CK $end
$var wire 1 F D $end
$var wire 1 # Q $end
$var wire 1 =! QN $end
$var reg 1 >! NOTIFIER $end
$var wire 1 ?! IQ $end
$var wire 1 @! nextstate $end
$var wire 1 A! IQN $end
$upscope $end
$scope module Sum_reg_7_ $end
$var wire 1 @ CK $end
$var wire 1 E D $end
$var wire 1 " Q $end
$var wire 1 B! QN $end
$var reg 1 C! NOTIFIER $end
$var wire 1 D! IQ $end
$var wire 1 E! nextstate $end
$var wire 1 F! IQN $end
$upscope $end
$scope module Sum_reg_8_ $end
$var wire 1 @ CK $end
$var wire 1 D D $end
$var wire 1 ! Q $end
$var wire 1 G! QN $end
$var reg 1 H! NOTIFIER $end
$var wire 1 I! IQ $end
$var wire 1 J! nextstate $end
$var wire 1 K! IQN $end
$upscope $end
$scope module U3 $end
$var wire 1 C A1 $end
$var wire 1 B A2 $end
$var wire 1 I ZN $end
$upscope $end
$upscope $end
$upscope $end
$enddefinitions $end
#0
$dumpvars
b0 *
b0 +
0,
0-
x~
x%!
x*!
x/!
x4!
x9!
x>!
xC!
xH!
x)
x(
x'
x&
x%
x$
x#
x"
x!
0@
1A
0B
0C
0L
0K
0J
0I
0H
0G
0F
0E
0D
0S
0R
0Q
zP
0O
0N
0M
0T
1U
0V
0W
0X
1Y
0Z
0[
0\
0]
1^
0_
0`
0a
0b
1c
0d
0e
0f
0g
1i
0j
0k
0l
0m
1n
0o
0p
0q
0r
1s
0t
0u
0v
0w
1x
0y
0z
0{
0|
x!!
0"!
x#!
x&!
0'!
x(!
x+!
0,!
x-!
x0!
01!
x2!
x5!
06!
x7!
x:!
0;!
x<!
x?!
0@!
xA!
xD!
0E!
xF!
xI!
0J!
xK!
0?
0>
0=
0<
0;
0:
09
08
07
06
05
04
03
02
01
00
0/
0.
0h
x}
x$!
x)!
x.!
x3!
x8!
x=!
xB!
xG!
$end
#5
1-
1.
0A
1@
0I!
1K!
0D!
1F!
0?!
1A!
0:!
1<!
05!
17!
00!
12!
0+!
1-!
0&!
1(!
0!!
1#!
1}
0)
1$!
0(
1)!
0'
1.!
0&
13!
0%
18!
0$
1=!
0#
1B!
0"
1G!
0!
#10
b11111111 *
b1 +
0-
1>
16
1W
1V
15
14
13
12
11
10
1/
0.
1A
1y
1t
1o
1j
1d
1_
1Z
0U
1S
1]
1[
1K
1'!
1J
1,!
1B
1H
16!
1G
1;!
1F
1@!
1E
1E!
0@
0K
0'!
0Y
1R
1b
1`
0J
0,!
0^
1Q
1g
1e
0B
0c
1C
#15
1-
1.
0A
1@
1D!
0F!
1?!
0A!
1:!
0<!
15!
07!
03!
1%
08!
1$
0=!
1#
0B!
1"
#20
b10001 *
b10001 +
0-
1:
1l
1k
05
04
03
01
00
0/
0.
1A
0y
0t
0o
0d
0g
0e
0_
0b
0`
0Z
0]
0[
0i
0j
0H
06!
1O
1K
1'!
1Y
1J
1,!
1^
1B
1c
0G
0;!
0F
0@!
0E
0E!
0@
0C
1I
11!
0Q
0R
1G
1;!
0J
0,!
0B
0I
01!
#25
1-
1.
0A
1@
0D!
1F!
0?!
1A!
05!
17!
1&!
0(!
0$!
1(
13!
0%
1=!
0#
1B!
0"
#30
b11111111 *
b0 +
1,
0-
0>
0W
0V
0:
0l
0k
15
14
13
11
10
1/
1?
0.
1A
1L
1"!
1y
1t
1o
1r
1p
1d
1_
1Z
1]
1[
1i
1j
1U
1T
1X
1V
0L
0"!
0U
0S
0]
0[
1H
16!
0O
0r
0p
0K
0'!
0Y
1J
1,!
1B
0G
0;!
0n
1F
1@!
1E
1E!
0@
1N
1w
1u
1R
1b
1`
1G
1;!
1n
1K
1'!
1Y
1S
1]
1[
0K
0'!
0Y
0R
0b
0`
0N
0w
0u
0J
0,!
0^
0F
0@!
0s
1M
1|
1z
1Q
1g
1e
1F
1@!
1s
1J
1,!
1^
1R
1b
1`
0J
0,!
0^
0Q
0g
0e
0M
0|
0z
0B
0c
0E
0E!
0x
1D
1J!
1C
1E
1E!
1x
1B
1c
1Q
1g
1e
0B
0c
0C
1I
11!
0D
0J!
1C
0I
01!
#35
1-
1.
0A
1@
1D!
0F!
1?!
0A!
15!
07!
0&!
1(!
1$!
0(
03!
1%
0=!
1#
0B!
1"
