AccurateAdder/SIMULATION/run_s/count.vcd
$date
	Tue May 23 22:34:55 2017
$end
$version
	ModelSim Version 10.0c
$end
$timescale
	1ns
$end
$scope module test_fixture $end
$var reg 1 ! clock100 $end
$var reg 1 " latch $end
$var reg 1 # dec $end
$var reg 4 $ in [3:0] $end
$var wire 1 % zero $end
$var reg 1 & value $end
$scope module DUT $end
$var wire 1 ' clock $end
$var wire 1 ( in [3] $end
$var wire 1 ) in [2] $end
$var wire 1 * in [1] $end
$var wire 1 + in [0] $end
$var wire 1 , latch $end
$var wire 1 - dec $end
$var wire 1 % zero $end
$var wire 1 . clock__L2_N0 $end
$var wire 1 / clock__L1_N0 $end
$var wire 1 0 sub_42_S2_A_0_ $end
$var wire 1 1 sub_42_S2_A_1_ $end
$var wire 1 2 sub_42_S2_A_2_ $end
$var wire 1 3 sub_42_S2_A_3_ $end
$var wire 1 4 n34 $end
$var wire 1 5 n35 $end
$var wire 1 6 n36 $end
$var wire 1 7 n37 $end
$var wire 1 8 n38 $end
$var wire 1 9 n39 $end
$var wire 1 : n40 $end
$var wire 1 ; n41 $end
$var wire 1 < n42 $end
$var wire 1 = n43 $end
$var wire 1 > n44 $end
$var wire 1 ? n45 $end
$var wire 1 @ n46 $end
$var wire 1 A n47 $end
$var wire 1 B n48 $end
$var wire 1 C n49 $end
$var wire 1 D n50 $end
$var wire 1 E n51 $end
$var wire 1 F n52 $end
$var wire 1 G n53 $end
$var wire 1 H n54 $end
$scope module clock__L2_I0 $end
$var wire 1 / A $end
$var wire 1 . ZN $end
$upscope $end
$scope module clock__L1_I0 $end
$var wire 1 ' A $end
$var wire 1 / ZN $end
$upscope $end
$scope module value_reg_0_ $end
$var wire 1 . CK $end
$var wire 1 5 D $end
$var wire 1 0 Q $end
$var wire 1 I QN $end
$var reg 1 J NOTIFIER $end
$var wire 1 K IQ $end
$var wire 1 L nextstate $end
$var wire 1 M IQN $end
$upscope $end
$scope module value_reg_1_ $end
$var wire 1 . CK $end
$var wire 1 G D $end
$var wire 1 1 Q $end
$var wire 1 9 QN $end
$var reg 1 N NOTIFIER $end
$var wire 1 O IQ $end
$var wire 1 P nextstate $end
$var wire 1 Q IQN $end
$upscope $end
$scope module value_reg_2_ $end
$var wire 1 . CK $end
$var wire 1 6 D $end
$var wire 1 2 Q $end
$var wire 1 R QN $end
$var reg 1 S NOTIFIER $end
$var wire 1 T IQ $end
$var wire 1 U nextstate $end
$var wire 1 V IQN $end
$upscope $end
$scope module value_reg_3_ $end
$var wire 1 . CK $end
$var wire 1 H D $end
$var wire 1 3 Q $end
$var wire 1 4 QN $end
$var reg 1 W NOTIFIER $end
$var wire 1 X IQ $end
$var wire 1 Y nextstate $end
$var wire 1 Z IQN $end
$upscope $end
$scope module U7 $end
$var wire 1 2 A1 $end
$var wire 1 1 A2 $end
$var wire 1 A ZN $end
$var wire 1 [ i_602 $end
$upscope $end
$scope module U9 $end
$var wire 1 ( A1 $end
$var wire 1 , A2 $end
$var wire 1 C ZN $end
$var wire 1 \ i_566 $end
$upscope $end
$scope module U13 $end
$var wire 1 = A $end
$var wire 1 , B1 $end
$var wire 1 + B2 $end
$var wire 1 0 C1 $end
$var wire 1 E C2 $end
$var wire 1 F ZN $end
$var wire 1 ] i_470 $end
$var wire 1 ^ i_471 $end
$var wire 1 _ i_473 $end
$var wire 1 ` i_472 $end
$upscope $end
$scope module U14 $end
$var wire 1 8 A1 $end
$var wire 1 0 A2 $end
$var wire 1 = ZN $end
$var wire 1 a i_602 $end
$upscope $end
$scope module U15 $end
$var wire 1 , A1 $end
$var wire 1 D A2 $end
$var wire 1 E ZN $end
$var wire 1 b i_602 $end
$upscope $end
$scope module U16 $end
$var wire 1 % A1 $end
$var wire 1 , A2 $end
$var wire 1 : A3 $end
$var wire 1 D ZN $end
$var wire 1 c i_610 $end
$var wire 1 d i_611 $end
$upscope $end
$scope module U17 $end
$var wire 1 0 A1 $end
$var wire 1 1 A2 $end
$var wire 1 2 A3 $end
$var wire 1 3 A4 $end
$var wire 1 % ZN $end
$var wire 1 e i_624 $end
$var wire 1 f i_625 $end
$var wire 1 g i_626 $end
$upscope $end
$scope module U18 $end
$var wire 1 F A $end
$var wire 1 5 ZN $end
$upscope $end
$scope module U19 $end
$var wire 1 > A $end
$var wire 1 6 ZN $end
$upscope $end
$scope module U20 $end
$var wire 1 @ A $end
$var wire 1 7 ZN $end
$upscope $end
$scope module U21 $end
$var wire 1 D A $end
$var wire 1 8 ZN $end
$upscope $end
$scope module U22 $end
$var wire 1 - A $end
$var wire 1 : ZN $end
$upscope $end
$scope module U23 $end
$var wire 1 E A $end
$var wire 1 D B1 $end
$var wire 1 0 B2 $end
$var wire 1 ; ZN $end
$var wire 1 h i_454 $end
$var wire 1 i i_455 $end
$upscope $end
$scope module U24 $end
$var wire 1 ; A $end
$var wire 1 8 B1 $end
$var wire 1 9 B2 $end
$var wire 1 ? ZN $end
$var wire 1 j i_658 $end
$var wire 1 k i_659 $end
$upscope $end
$scope module U25 $end
$var wire 1 C A $end
$var wire 1 B B1 $end
$var wire 1 4 B2 $end
$var wire 1 H ZN $end
$var wire 1 l i_658 $end
$var wire 1 m i_659 $end
$upscope $end
$scope module U26 $end
$var wire 1 ? A $end
$var wire 1 2 B1 $end
$var wire 1 D B2 $end
$var wire 1 B ZN $end
$var wire 1 n i_454 $end
$var wire 1 o i_455 $end
$upscope $end
$scope module U27 $end
$var wire 1 < A $end
$var wire 1 ; B1 $end
$var wire 1 9 B2 $end
$var wire 1 G ZN $end
$var wire 1 p i_658 $end
$var wire 1 q i_659 $end
$upscope $end
$scope module U28 $end
$var wire 1 * A1 $end
$var wire 1 , A2 $end
$var wire 1 = B1 $end
$var wire 1 9 B2 $end
$var wire 1 < ZN $end
$var wire 1 r i_522 $end
$var wire 1 s i_523 $end
$var wire 1 t i_524 $end
$upscope $end
$scope module U29 $end
$var wire 1 7 A $end
$var wire 1 ? B1 $end
$var wire 1 2 B2 $end
$var wire 1 > ZN $end
$var wire 1 u i_454 $end
$var wire 1 v i_455 $end
$upscope $end
$scope module U30 $end
$var wire 1 A A1 $end
$var wire 1 = A2 $end
$var wire 1 ) B1 $end
$var wire 1 , B2 $end
$var wire 1 @ ZN $end
$var wire 1 w i_522 $end
$var wire 1 x i_523 $end
$var wire 1 y i_524 $end
$upscope $end
$upscope $end
$upscope $end
$enddefinitions $end
#0
$dumpvars
0!
0"
0#
b1111 $
x&
xJ
xN
xS
xW
x%
0.
1/
x0
x1
x2
x3
x4
x5
x6
07
18
x9
1:
0;
1<
0=
x>
1?
1@
xA
0B
1C
0D
1E
xF
xG
xH
xK
xL
xM
xO
xP
xQ
xT
xU
xV
xX
xY
xZ
x[
0\
x]
x^
0_
x`
1a
0b
1c
xd
xe
xf
xg
1h
0i
0j
1k
xl
xm
1n
0o
xp
xq
0r
0s
0t
xu
xv
0w
0x
0y
0-
0,
1+
1*
1)
1(
0'
xI
xR
$end
#5
1!
1'
0/
1.
#10
0!
0'
1/
0.
#15
1!
1'
0/
1.
#16
1"
1,
1y
1w
1s
1r
1d
1b
1_
1]
1\
0C
0l
0F
0E
0h
0`
0^
0<
0p
0@
17
1u
1G
1P
1;
1q
1j
15
1L
1H
1Y
0?
0v
0n
0>
16
1U
1B
1m
#20
0!
0'
1/
0.
#25
1!
1'
0/
1.
1X
0Z
1T
0V
1O
0Q
1K
0M
0I
10
1g
1f
1e
09
11
1[
0R
12
04
13
0A
0%
#26
0"
0,
0y
0w
0s
0r
0d
0b
0_
0]
0\
1C
1l
1F
1E
1h
1`
1^
1]
1<
1p
1@
07
0u
0G
0P
0F
0;
0q
0p
0j
05
0L
0H
0Y
1?
1v
1u
1n
1G
1P
15
1L
1>
06
0U
0B
0m
0l
0>
16
1U
1H
1Y
#30
0!
0'
1/
0.
#35
1!
1'
0/
1.
#36
1#
1-
0:
0c
1D
1o
1i
1b
0E
0`
0^
0]
08
0k
1F
05
0L
#40
0!
0'
1/
0.
#45
1!
1'
0/
1.
0K
1M
1I
00
0i
0h
0a
1=
1^
1]
1;
1q
1p
0G
0P
0F
15
1L
#50
0!
0'
1/
0.
#55
1!
1'
0/
1.
0O
1Q
1K
0M
0I
10
1i
1h
1a
19
1t
1r
1k
1j
01
0?
0v
0u
0<
0p
0=
0t
0r
0^
0]
0;
0j
1?
1v
1u
1F
1<
1p
1G
1P
1>
06
0U
0G
0P
05
0L
0>
16
1U
#60
0!
0'
1/
0.
#65
1!
1'
0/
1.
0K
1M
1I
00
0i
0h
0g
0a
1=
1t
1r
1^
1]
1;
1j
0?
0v
0u
0F
0<
0p
1G
1P
15
1L
1>
06
0U
#70
0!
0'
1/
0.
#75
1!
1'
0/
1.
0T
1V
1O
0Q
1K
0M
0I
10
1i
1h
1g
1a
09
0t
0r
0k
0j
11
1R
02
0o
0n
1B
1m
1l
1?
1n
1<
1p
0=
0^
0]
0;
0q
0p
1F
0B
0m
0l
0H
0Y
1H
1Y
05
0L
#80
0!
0'
1/
0.
#85
1!
1'
0/
1.
0K
1M
1I
00
0i
0h
0a
1=
1^
1]
1;
1q
1p
0G
0P
0F
15
1L
#90
0!
0'
1/
0.
#95
1!
1'
0/
1.
0O
1Q
1K
0M
0I
10
1i
1h
1a
19
1t
1r
1k
1j
01
0[
1A
1x
1w
0?
0n
0<
0p
0=
0x
0w
0t
0r
0^
0]
0;
0j
1?
1n
1F
1<
1p
1G
1P
1B
1m
1l
0H
0Y
0G
0P
05
0L
0B
0m
0l
1H
1Y
#100
0!
0'
1/
0.
#105
1!
1'
0/
1.
0K
1M
1I
00
0i
0h
0g
0f
0a
1=
1x
1w
1t
1r
1^
1]
1;
1j
0?
0n
0F
0<
0p
0@
17
1u
1G
1P
15
1L
1B
1m
1l
0H
0Y
0>
16
1U
#110
0!
0'
1/
0.
#115
1!
1'
0/
1.
0X
1Z
1T
0V
1O
0Q
1K
0M
0I
10
1i
1h
1g
1f
1a
09
0t
0r
0k
0j
11
1[
0R
12
1o
1n
14
03
0B
0A
0x
0w
1?
1v
1<
1p
0=
0^
0]
0;
0q
0p
1F
1@
07
05
0L
#120
0!
0'
1/
0.
#125
1!
1'
0/
1.
0K
1M
1I
00
0i
0h
0a
1=
1^
1]
1;
1q
1p
0G
0P
0F
15
1L
#130
0!
0'
1/
0.
#135
1!
1'
0/
1.
0O
1Q
1K
0M
0I
10
1i
1h
1a
19
1t
1r
1k
1j
01
0?
0v
0u
0<
0p
0=
0t
0r
0^
0]
0;
0j
1?
1v
1u
1F
1<
1p
1G
1P
1>
06
0U
0G
0P
05
0L
0>
16
1U
#140
0!
0'
1/
0.
#145
1!
1'
0/
1.
0K
1M
1I
00
0i
0h
0g
0a
1=
1t
1r
1^
1]
1;
1j
0?
0v
0u
0F
0<
0p
1G
1P
15
1L
1>
06
0U
#150
0!
0'
1/
0.
#155
1!
1'
0/
1.
0T
1V
1O
0Q
1K
0M
0I
10
1i
1h
1g
1a
09
0t
0r
0k
0j
11
1R
02
0o
0n
1B
1?
1n
1<
1p
0=
0^
0]
0;
0q
0p
1F
0B
05
0L
#160
0!
0'
1/
0.
#165
1!
1'
0/
1.
0K
1M
1I
00
0i
0h
0a
1=
1^
1]
1;
1q
1p
0G
0P
0F
15
1L
#170
0!
0'
1/
0.
#175
1!
1'
0/
1.
0O
1Q
1K
0M
0I
10
1i
1h
1a
19
1t
1r
1k
1j
01
0[
1A
1x
1w
0?
0n
0<
0p
0=
0x
0w
0t
0r
0^
0]
0;
0j
1?
1n
1F
1<
1p
1G
1P
1B
0G
0P
05
0L
0B
#180
0!
0'
1/
0.
#185
1!
1'
0/
1.
0K
1M
1I
00
0i
0h
0g
0f
0e
0a
1=
1x
1w
1t
1r
1^
1]
1%
1d
1c
1;
1j
0?
0n
0D
0b
0F
0<
0p
0@
17
1u
1G
1P
15
1L
1E
1h
18
1a
1B
0=
0x
0w
0t
0r
0^
0]
0;
0j
0>
16
1U
1?
1n
1F
1<
1p
1@
07
0u
0G
0P
05
0L
0B
1>
06
0U
